salary_grade,salary,step_1,step_2,step_3,step_4,step_5,step_6,step_7,step_8,step_9,step_10
1.00,,9478.00,9568.00,9660.00,9753.00,9846.00,9949.00,10036.00,10132.00,,
2.00,,10159.00,10255.00,10351.00,10449.00,10547.00,10647.00,10747.00,10848.00,,
3.00,,10883.00,10985.00,11089.00,11193.00,11298.00,11405.00,11512.00,11621.00,,
4.00,,11658.00,11767.00,11878.00,11990.00,12103.00,12217.00,12333.00,12448.00,,
5.00,,12488.00,12644.00,12725.00,12844.00,12965.00,13087.00,13211.00,13335.00,,
6.00,,13378.00,13504.00,13630.00,13759.00,13889.00,14020.00,14152.00,14285.00,,
7.00,,14331.00,14466.00,14602.00,14740.00,14878.00,15018.00,15159.00,15303.00,,
8.00,,15368.00,15519.00,15670.00,15823.00,15978.00,16133.00,16291.00,16450.00,,
9.00,,16512.00,16671.00,16830.00,16992.00,17155.00,17319.00,17485.00,17653.00,,
10.00,,17730.00,17900.00,18071.00,18245.00,18420.00,18634.00,18775.00,18955.00,,
11.00,,19077.00,19286.00,19496.00,19709.00,19925.00,20142.00,20362.00,20585.00,,
12.00,,20651.00,20870.00,21091.00,21315.00,21540.00,21769.00,21999.00,22232.00,,
13.00,,22328.00,22564.00,22804.00,23045.00,23289.00,23536.00,23786.00,24037.00,,
14.00,,24141.00,24396.00,24655.00,24916.00,25180.00,25447.00,25717.00,25989.00,,
15.00,,26192.00,26489.00,26790.00,27094.00,27401.00,27712.00,28027.00,28344.00,,
16.00,,28417.00,28740.00,29066.00,29396.00,29729.00,30066.00,30408.00,30752.00,,
17.00,,30831.00,31183.00,31536.00,31893.00,32255.00,32622.00,32991.00,33366.00,,
18.00,,33452.00,33831.00,34215.00,34603.00,34996.00,35393.00,35795.00,36201.00,,
19.00,,36409.00,36857.00,37312.00,37771.00,38237.00,38709.00,39186.00,39670.00,,
20.00,,39768.00,40259.00,40755.00,41258.00,41766.00,42281.00,42802.00,43330.00,,
21.00,,43439.00,43974.00,44517.00,45066.00,45621.00,46183.00,46753.00,47329.00,,
22.00,,47448.00,48032.00,48625.00,49224.00,49831.00,50445.00,51067.00,51697.00,,
23.00,,51826.00,52466.00,53112.00,53767.00,54430.00,55101.00,55781.00,56468.00,,
24.00,,56610.00,57308.00,58014.00,58730.00,59453.00,60187.00,60928.00,61679.00,,
25.00,,61971.00,62735.00,63508.00,64291.00,65083.00,65885.00,66698.00,67520.00,,
26.00,,67690.00,68524.00,69369.00,70224.00,71090.00,71967.00,72855.00,73751.00,,
27.00,,73937.00,74849.00,75771.00,76705.00,77651.00,78608.00,79577.00,80567.00,,
28.00,,80760.00,81756.00,82764.00,83784.00,84817.00,85862.00,86921.00,87993.00,,
29.00,,88214.00,89301.00,90402.00,91516.00,92644.00,93786.00,94943.00,96113.00,,
30.00,,96354.00,97543.00,98745.00,99962.00,101195.00,102442.00,103705.00,104984.00,,
31.00,,117086.00,118623.00,120180.00,121758.00,123356.00,124975.00,126616.00,128278.00,,
32.00,,135376.00,137174.00,138996.00,140843.00,142714.00,144610.00,146531.00,148478.00,,
33.00,,160924.00,165752.00,,,,,,,,